module github.com/xtls/xray-core

go 1.18

require (
	github.com/ghodss/yaml v1.0.1-0.20190212211648-25d852aebe32
	github.com/golang/mock v1.6.0
	github.com/golang/protobuf v1.5.2
	github.com/google/go-cmp v0.5.8
	github.com/gorilla/websocket v1.5.0
	github.com/lucas-clemente/quic-go v0.27.1
	github.com/marten-seemann/qtls-go1-16 v0.1.5
	github.com/marten-seemann/qtls-go1-17 v0.1.1
	github.com/marten-seemann/qtls-go1-18 v0.1.1
	github.com/miekg/dns v1.1.49
	github.com/pelletier/go-toml v1.9.5
	github.com/pires/go-proxyproto v0.6.2
	github.com/refraction-networking/utls v1.1.0
	github.com/sagernet/sing v0.0.0-20220601033944-4e04bbd3d84d
	github.com/sagernet/sing-shadowsocks v0.0.0-20220601034426-ee9be8af94e4
	github.com/seiflotfy/cuckoofilter v0.0.0-20220411075957-e3b120b3f5fb
	github.com/stretchr/testify v1.7.1
	github.com/v2fly/ss-bloomring v0.0.0-20210312155135-28617310f63e
	github.com/xtls/go v0.0.0-20210920065950-d4af136d3672
	go.starlark.net v0.0.0-20220328144851-d1966c6b9fcd
	golang.org/x/crypto v0.0.0-20220525230936-793ad666bf5e
	golang.org/x/net v0.0.0-20220526153639-5463443f8c37
	golang.org/x/sync v0.0.0-20220513210516-0976fa681c29
	golang.org/x/sys v0.0.0-20220520151302-bc2c85ada10a
	google.golang.org/grpc v1.46.2
	google.golang.org/protobuf v1.28.0
	h12.io/socks v1.0.3
)

require (
	github.com/cheekybits/genny v1.0.0 // indirect
	github.com/davecgh/go-spew v1.1.1 // indirect
	github.com/dgryski/go-metro v0.0.0-20211217172704-adc40b04c140 // indirect
	github.com/francoispqt/gojay v1.2.13 // indirect
	github.com/fsnotify/fsnotify v1.5.4 // indirect
	github.com/go-task/slim-sprig v0.0.0-20210107165309-348f09dbbbc0 // indirect
	github.com/klauspost/cpuid/v2 v2.0.12 // indirect
	github.com/nxadm/tail v1.4.8 // indirect
	github.com/onsi/ginkgo v1.16.5 // indirect
	github.com/pmezard/go-difflib v1.0.0 // indirect
	github.com/riobard/go-bloom v0.0.0-20200614022211-cdc8013cb5b3 // indirect
	golang.org/x/mod v0.6.0-dev.0.20220106191415-9b9b3d81d5e3 // indirect
	golang.org/x/text v0.3.7 // indirect
	golang.org/x/tools v0.1.11-0.20220325154526-54af36eca237 // indirect
	golang.org/x/xerrors v0.0.0-20220517211312-f3a8303e98df // indirect
	google.golang.org/genproto v0.0.0-20220527130721-00d5c0f3be58 // indirect
	gopkg.in/tomb.v1 v1.0.0-20141024135613-dd632973f1e7 // indirect
	gopkg.in/yaml.v2 v2.4.0 // indirect
	gopkg.in/yaml.v3 v3.0.1 // indirect
	lukechampine.com/blake3 v1.1.7 // indirect
)
